          #node       #Thr/Blk   GPU_coll_AoS   GPU_coll_SoA   GPU_strm_AoS   GPU_strm_SoA        GPU_AoS        GPU_SoA
          10000             16   5.511062e-05   9.763147e-05   0.0005401002    8.98241e-05  0.00059521082  0.00018745557
          10000             32   2.708604e-05   4.951784e-05   0.0003477092    8.89321e-05  0.00037479524  0.00013844994
          10000             64   2.815457e-05    5.26375e-05    0.000376924     8.8108e-05  0.00040507857   0.0001407455
          10000            128   2.891137e-05   5.402986e-05   0.0003643811    8.75845e-05  0.00039329247  0.00014161436
          10000            256   3.013184e-05   5.547259e-05   0.0003765976    7.57107e-05  0.00040672944  0.00013118329
          10000            512   3.421613e-05   5.863809e-05   0.0003782416    8.70744e-05  0.00041245773  0.00014571249
          10000           1024     2.3958e-07     3.1407e-07   0.0001818353    7.86492e-05  0.00018207488   7.896327e-05
          20000             16   9.469915e-05  0.00018630214   0.0010527348   0.0001360798  0.00114743395  0.00032238194
          20000             32   5.210831e-05   9.919091e-05   0.0007369577    0.000120359  0.00078906601  0.00021954991
          20000             64   5.495802e-05   0.0001050581   0.0007375014   0.0001199606  0.00079245942   0.0002250187
          20000            128    5.50525e-05  0.00010500633   0.0007508756   0.0001077002   0.0008059281  0.00021270653
          20000            256   5.755486e-05  0.00010811081   0.0007676958   0.0001211059  0.00082525066  0.00022921671
          20000            512   9.403575e-05  0.00014257419   0.0007984848   0.0001110757  0.00089252055  0.00025364989
          20000           1024     2.3986e-07     3.0818e-07   0.0003845231   0.0001205033  0.00038476296  0.00012081148
          40000             16  0.00018037099  0.00035726246   0.0019960392   0.0002113857  0.00217641019  0.00056864816
          40000             32   9.738891e-05  0.00018613978   0.0013957073   0.0001808671  0.00149309621  0.00036700688
          40000             64   9.752445e-05  0.00019056328   0.0013813237   0.0001668551  0.00147884815  0.00035741838
          40000            128   9.922964e-05  0.00019215005   0.0013813813   0.0001799342  0.00148061094  0.00037208425
          40000            256  0.00010709527  0.00020560406   0.0014403506   0.0001674911  0.00154744587  0.00037309516
          40000            512  0.00017079577  0.00028663816   0.0015318503   0.0001677578  0.00170264607  0.00045439596
          40000           1024     3.3882e-07     3.4766e-07    0.000710079   0.0001680629  0.00071041782  0.00016841056
          80000             16  0.00035308883  0.00069804625   0.0039025729   0.0003614583  0.00425566173  0.00105950455
          80000             32  0.00018464163  0.00036001426   0.0026708233   0.0003151029  0.00285546493  0.00067511716
          80000             64  0.00018608003  0.00036323201   0.0027025186   0.0002879821  0.00288859863  0.00065121411
          80000            128  0.00018694251  0.00036174366   0.0026719527   0.0002884282  0.00285889521  0.00065017186
          80000            256  0.00021271734  0.00047281985   0.0032250952   0.0002867637  0.00343781254  0.00075958355
          80000            512  0.00029065462  0.00048223059   0.0029562757   0.0002871555  0.00324693032  0.00076938609
          80000           1024     2.7112e-07     3.1908e-07   0.0013241846   0.0002865744  0.00132445572  0.00028689348
         160000             16  0.00083606928  0.00177533934   0.0096910038   0.0007878439  0.01052707308  0.00256318324
         160000             32  0.00041659676  0.00081831458   0.0060268093   0.0006656737  0.00644340606  0.00148398828
         160000             64  0.00042809468  0.00088627853   0.0062711383   0.0007522676  0.00669923298  0.00163854613
         160000            128  0.00044750779  0.00082934926   0.0065307825   0.0006194897  0.00697829029  0.00144883896
         160000            256  0.00044548801  0.00084917732   0.0062899766   0.0006520805  0.00673546461  0.00150125782
         160000            512  0.00069663917  0.00112259166   0.0072476755   0.0006225581  0.00794431467  0.00174514976
         160000           1024     2.4173e-07     2.9022e-07   0.0031185976   0.0006216522  0.00311883933  0.00062194242
10000
         #nCore       #Thr/Blk   CPU_coll_AoS   CPU_coll_SoA   CPU_strm_AoS   CPU_strm_SoA        CPU_AoS        CPU_SoA
              1            256   0.0004570966   0.0004918778   0.0004528459   0.0002284439   0.0009099425   0.0007203217
              2            256    0.000233402   0.0002507457   0.0006332104   0.0002083827   0.0008666124   0.0004591284
              4            256   0.0001212398    0.000136084   0.0004490852   0.0001657826    0.000570325   0.0003018666
              8            256    6.76351e-05    7.54737e-05   0.0008256948    0.000337176   0.0008933299   0.0004126497
             16            256    5.16033e-05    6.36729e-05   0.0009157898   0.0005425537   0.0009673931   0.0006062266
20000
         #nCore       #Thr/Blk   CPU_coll_AoS   CPU_coll_SoA   CPU_strm_AoS   CPU_strm_SoA        CPU_AoS        CPU_SoA
              1            256   0.0009206721   0.0010126257   0.0009029587   0.0004531244   0.0018236308   0.0014657501
              2            256   0.0004741687   0.0004975656   0.0011877434   0.0003408086   0.0016619121   0.0008383742
              4            256   0.0002355528   0.0002601324   0.0011499332   0.0005125614    0.001385486   0.0007726938
              8            256   0.0001285616   0.0001459591   0.0012141034   0.0005444789    0.001342665    0.000690438
             16            256    8.96356e-05   0.0001092162   0.0013593361   0.0006841929   0.0014489717   0.0007934091
40000
         #nCore       #Thr/Blk   CPU_coll_AoS   CPU_coll_SoA   CPU_strm_AoS   CPU_strm_SoA        CPU_AoS        CPU_SoA
              1            256   0.0018430489    0.001971914   0.0018557063   0.0009302225   0.0036987552   0.0029021365
              2            256   0.0009259868   0.0009919291    0.001712444   0.0006012468   0.0026384308   0.0015931759
              4            256   0.0004711277   0.0005137522   0.0023521382   0.0004136044   0.0028232659   0.0009273566
              8            256   0.0002462183   0.0002741893   0.0020654091   0.0006095793   0.0023116274   0.0008837686
             16            256   0.0001595351    0.000192239   0.0026100635   0.0011807724   0.0027695986   0.0013730114
80000
         #nCore       #Thr/Blk   CPU_coll_AoS   CPU_coll_SoA   CPU_strm_AoS   CPU_strm_SoA        CPU_AoS        CPU_SoA
              1            256    0.003678617   0.0039695221   0.0036256755   0.0018685855   0.0073042925   0.0058381076
              2            256    0.001843698   0.0019838092   0.0037978532   0.0011614663   0.0056415512   0.0031452755
              4            256   0.0009391582   0.0010442363   0.0043671329   0.0014254059   0.0053062911   0.0024696422
              8            256   0.0004723487   0.0005145859   0.0038564542   0.0015911883   0.0043288029   0.0021057742
             16            256   0.0003207533   0.0003826043    0.005335495   0.0020080753   0.0056562483   0.0023906796
160000
         #nCore       #Thr/Blk   CPU_coll_AoS   CPU_coll_SoA   CPU_strm_AoS   CPU_strm_SoA        CPU_AoS        CPU_SoA
              1            256   0.0073842897   0.0160422909   0.0100712883   0.0059085964    0.017455578   0.0219508873
              2            256   0.0036723282   0.0081963997   0.0110486152   0.0024690369   0.0147209434   0.0106654366
              4            256   0.0018483007   0.0043603515    0.015261456   0.0024523179   0.0171097567   0.0068126694
              8            256   0.0009634867   0.0021779077    0.013155615   0.0044240299   0.0141191017   0.0066019376
             16            256   0.0006669363   0.0011609525   0.0140540993   0.0053056885   0.0147210356    0.006466641
